{
    "CCObject": [
        {
            "key": "mtA", 
            "val": {
                "attr": [
                    {
                        "bid": "lib", 
                        "val": "A", 
                        "known": true
                    }
                ], 
                "typeId": "marcheType"
            }
        }, 
        {
            "key": "mtB", 
            "val": {
                "attr": [
                    {
                        "bid": "lib", 
                        "val": "B", 
                        "known": true
                    }
                ], 
                "typeId": "marcheType"
            }
        }, 
        {
            "key": "mtC", 
            "val": {
                "attr": [
                    {
                        "bid": "lib", 
                        "val": "C", 
                        "known": true
                    }
                ], 
                "typeId": "marcheType"
            }
        }, 
        {
            "key": "mtD", 
            "val": {
                "attr": [
                    {
                        "bid": "lib", 
                        "val": "D", 
                        "known": true
                    }
                ], 
                "typeId": "marcheType"
            }
        }
    ]
}